com\myindo\project\listcuti\model\ResponseContentModel.class
com\myindo\project\listcuti\model\HasilGet.class
com\myindo\project\listcuti\model\RequestModel.class
com\myindo\project\listcuti\process\ProsesListCuti.class
com\myindo\project\listcuti\model\ParameterDB.class
com\myindo\project\listcuti\controller\Resources.class
com\myindo\project\listcuti\dao\GetListCuti.class
com\myindo\project\listcuti\connection\Connect.class
com\myindo\project\listcuti\util\ParameterizedDB.class
com\myindo\project\listcuti\model\ResponseModel.class
